// Jest Snapshot v1, https://goo.gl/fbAQLP

exports[`shows header with filters 1`] = `
<div
  className="header d-flex flex-md-row flex-column bg-info justify-content-between align-items-center shadow-lg"
>
  <a
    className="btn btn-danger shadow"
    href="/"
    onClick={[Function]}
  >
    Home
  </a>
  <div
    className="flex-grow-1 d-flex flex-sm-row flex-column pr-md-2 pl-md-2 pt-2 pb-2"
  >
    <select
      className="form-control"
      defaultValue=""
      onChange={[Function]}
      style={
        Object {
          "maxWidth": 200,
        }
      }
    >
      <option
        value="all"
      >
        Show All
      </option>
      <option>
        Fashion
      </option>
      <option>
        Food
      </option>
      <option>
        Health
      </option>
      <option>
        Music
      </option>
      <option>
        Nature
      </option>
      <option>
        News
      </option>
      <option>
        Science
      </option>
      <option>
        Sports
      </option>
      <option>
        Travel
      </option>
    </select>
    <input
      className="form-control"
      defaultValue=""
      onChange={[Function]}
      type="text"
    />
  </div>
  <a
    className="btn btn-danger shadow"
    href="/login"
    onClick={[Function]}
  >
    Login
  </a>
</div>
`;

exports[`shows header with filters and user 1`] = `
<div
  className="header d-flex flex-md-row flex-column bg-info justify-content-between align-items-center shadow-lg"
>
  <a
    className="btn btn-danger shadow"
    href="/"
    onClick={[Function]}
  >
    Home
  </a>
  <div
    className="flex-grow-1 d-flex flex-sm-row flex-column pr-md-2 pl-md-2 pt-2 pb-2"
  >
    <select
      className="form-control"
      defaultValue=""
      onChange={[Function]}
      style={
        Object {
          "maxWidth": 200,
        }
      }
    >
      <option
        value="all"
      >
        Show All
      </option>
      <option>
        Fashion
      </option>
      <option>
        Food
      </option>
      <option>
        Health
      </option>
      <option>
        Music
      </option>
      <option>
        Nature
      </option>
      <option>
        News
      </option>
      <option>
        Science
      </option>
      <option>
        Sports
      </option>
      <option>
        Travel
      </option>
    </select>
    <input
      className="form-control"
      defaultValue=""
      onChange={[Function]}
      type="text"
    />
  </div>
  <div>
    Logged in as 
  </div>
  <div>
    <a
      className="btn btn-success shadow ml-2"
      href="/createpost"
      onClick={[Function]}
    >
      Create post
    </a>
    <button
      aria-label={null}
      className="btn-outline-light ml-2  shadow btn btn-secondary"
      onClick={[Function]}
      type="button"
    >
      Logout
    </button>
  </div>
</div>
`;

exports[`shows header without filters 1`] = `
<div
  className="header d-flex flex-md-row flex-column bg-info justify-content-between align-items-center shadow-lg"
>
  <a
    className="btn btn-danger shadow"
    href="/"
    onClick={[Function]}
  >
    Home
  </a>
  <a
    className="btn btn-danger shadow"
    href="/login"
    onClick={[Function]}
  >
    Login
  </a>
</div>
`;

exports[`shows header without filters and with user 1`] = `
<div
  className="header d-flex flex-md-row flex-column bg-info justify-content-between align-items-center shadow-lg"
>
  <a
    className="btn btn-danger shadow"
    href="/"
    onClick={[Function]}
  >
    Home
  </a>
  <div>
    Logged in as 
  </div>
  <div>
    <a
      className="btn btn-success shadow ml-2"
      href="/createpost"
      onClick={[Function]}
    >
      Create post
    </a>
    <button
      aria-label={null}
      className="btn-outline-light ml-2  shadow btn btn-secondary"
      onClick={[Function]}
      type="button"
    >
      Logout
    </button>
  </div>
</div>
`;
