// Jest Snapshot v1, https://goo.gl/fbAQLP

exports[`shows posts list: after load 1`] = `
<div
  id="scrollDiv"
  style={
    Object {
      "overflow": "auto",
    }
  }
>
  <div
    style={Object {}}
  >
    <div
      className="infinite-scroll-component"
      style={
        Object {
          "WebkitOverflowScrolling": "touch",
          "height": "auto",
          "overflow": "auto",
        }
      }
    >
      <div
        className="alert alert-heading m-1 alert alert-success fade"
        role="alert"
      >
        2019-1-18 18:23:13 
        <img
          alt=""
          src="data:image/jpeg;base64,null"
        />
        <a
          href="/post/147"
          onClick={[Function]}
        >
          rtrttete
        </a>
          Yaroslav
      </div>
      <div
        className="alert alert-heading m-1 alert alert-success fade"
        role="alert"
      >
        2019-1-18 17:58:30 
        <img
          alt=""
          src="data:image/jpeg;base64,null"
        />
        <a
          href="/post/146"
          onClick={[Function]}
        >
          sasadkjassajkh
        </a>
          Admin
      </div>
      <div
        className="alert alert-heading m-1 alert alert-success fade"
        role="alert"
      >
        2019-1-18 17:57:55 
        <img
          alt=""
          src="data:image/jpeg;base64,null"
        />
        <a
          href="/post/145"
          onClick={[Function]}
        >
          asdsadas
        </a>
          Admin
      </div>
      <div>
        No more posts
      </div>
    </div>
  </div>
</div>
`;

exports[`shows posts list: before load 1`] = `
<div
  id="scrollDiv"
  style={
    Object {
      "overflow": "auto",
    }
  }
>
  <div
    style={Object {}}
  >
    <div
      className="infinite-scroll-component"
      style={
        Object {
          "WebkitOverflowScrolling": "touch",
          "height": "auto",
          "overflow": "auto",
        }
      }
    >
      <div>
        Loading...
      </div>
    </div>
  </div>
</div>
`;
